<?xml version="1.0" encoding="UTF-8"?>
<svg width="20px" height="20px" viewBox="0 0 20 20" version="1.1" xmlns="http://www.w3.org/2000/svg" xmlns:xlink="http://www.w3.org/1999/xlink">
    <!-- Generator: Sketch 53.2 (72643) - https://sketchapp.com -->
    <title>email</title>
    <desc>Created with Sketch.</desc>
    <g id="Page-1" stroke="none" stroke-width="1" fill="none" fill-rule="evenodd">
        <g id="Tablet" transform="translate(-298.000000, -810.000000)">
            <g id="email" transform="translate(298.000000, 810.000000)">
                <rect id="Rectangle" fill="#29ADFE" x="0" y="0" width="20" height="20" rx="2"></rect>
                <g id="Group-7" transform="translate(3.000000, 4.000000)" fill="#FFFFFF" fill-rule="nonzero">
                    <path d="M5.09450893,5.98678571 C1.0459375,3.04852679 1.0871875,3.04111607 -2.93098879e-14,2.19495536 L-2.93098879e-14,1.07142857 C-2.93098879e-14,0.4796875 0.4796875,1.11466392e-13 1.07142857,1.11466392e-13 L13.2142857,1.11466392e-13 C13.8060268,1.11466392e-13 14.2857143,0.4796875 14.2857143,1.07142857 L14.2857143,2.19495536 C13.1977232,3.04178571 13.2395536,3.04870536 9.19120536,5.98683036 C8.72245536,6.32857143 7.78977679,7.15290179 7.14285714,7.1428125 C6.49540179,7.15254464 5.56397321,6.32910714 5.09450893,5.98678571 L5.09450893,5.98678571 Z" id="Path"></path>
                    <path d="M14.2857143,4 L14.2857143,10.3493304 C14.2857143,10.9410714 13.8060268,11.4207589 13.2142857,11.4207589 L1.07142857,11.4207589 C0.4796875,11.4207589 -2.93098879e-14,10.9410714 -2.93098879e-14,10.3493304 L-2.93098879e-14,4 C0.623125,4.481875 1.48790179,5.12660714 4.25459821,7.13455357 C4.88683036,7.59620536 5.94991071,8.56959821 7.14272321,8.56357143 C8.34303571,8.56955357 9.42116071,7.57959821 10.0320089,7.13388393 C12.7979911,5.12651786 13.6625893,4.48183036 14.2857143,4 Z" id="Path"></path>
                </g>
            </g>
        </g>
    </g>
</svg>